Olist_ecommerce_master
…
seller_locations <- sellers %>%
  count(seller_state) %>%
  mutate(proportion = n/sum(n) * 100)

customer_locations2 <- customers %>%
  count(customer_state) 

seller_locations2 <- sellers %>%
  count(seller_state)

  datasets <- list_geobr()
print(datasets, n=21)

## # A tibble: 27 x 4
##    `function`                 geography          years                  source  
##    <chr>                      <chr>              <chr>                  <chr>   
##  1 `read_country`             Country            1872, 1900, 1911, 192~ IBGE    
##  2 `read_region`              Region             2000, 2001, 2010, 201~ IBGE    
##  3 `read_state`               States             1872, 1900, 1911, 192~ IBGE    
##  4 `read_meso_region`         Meso region        2000, 2001, 2010, 201~ IBGE    
##  5 `read_micro_region`        Micro region       2000, 2001, 2010, 201~ IBGE    
##  6 `read_intermediate_region` Intermediate regi~ 2017, 2019, 2020       IBGE    
##  7 `read_immediate_region`    Immediate region   2017, 2019, 2020       IBGE    
##  8 `read_municipality`        Municipality       1872, 1900, 1911, 192~ IBGE    
##  9 `read_municipal_seat`      Municipality seat~ 1872, 1900, 1911, 192~ IBGE    
## 10 `read_weighting_area`      Census weighting ~ 2010                   IBGE    
## 11 `read_census_tract`        Census tract (set~ 2000, 2010, 2017, 201~ IBGE    
## 12 `read_statistical_grid`    Statistical Grid ~ 2010                   IBGE    
## 13 `read_metro_area`          Metropolitan areas 1970, 2001, 2002, 200~ IBGE    
## 14 `read_urban_area`          Urban footprints   2005, 2015             IBGE    
## 15 `read_amazon`              Brazil's Legal Am~ 2012                   MMA     
## 16 `read_biomes`              Biomes             2004, 2019             IBGE    
## 17 `read_conservation_units`  Environmental Con~ 201909                 MMA     
## 18 `read_disaster_risk_area`  Disaster risk are~ 2010                   CEMADEN~
## 19 `read_indigenous_land`     Indigenous lands   201907, 202103         FUNAI   
## 20 `read_semiarid`            Semi Arid region   2005, 2017             IBGE    
## 21 `read_health_facilities`   Health facilities  2015                   CNES, D~
## # ... with 6 more rows
…
M <- as.matrix(DTM_review_hc)
DTM_tbl <- as_tibble(M)

DTM_tbl_tidy <- pivot_longer(DTM_tbl, cols = !que, names_to = "word", values_to = "wordCount")

wordCountDoc <- DTM_tbl_tidy %>%  
        group_by(word) %>% 
        summarise(total = sum(wordCount)) %>% 
        arrange(desc(total)) 
print(wordCountDoc)

## # A tibble: 71 x 2
##    word       total
##    <chr>      <dbl>
##  1 produto        6
##  2 comprei        5
##  3 bom            3
##  4 dentro         3
##  5 mercadoria     3
##  6 minha          3
##  7 prazo          3
##  8 recebi         3
##  9 adorei         2
## 10 antes          2
## # ... with 61 more rows
…
